                       W - EtOH mixtures 
Ion,      Weight,      Charge,      Radius,      Eps_s,      DG_Exp 
  K,         0,          1,          1.52,     79.0895,       -352 
  K,       0.1,          1,          1.52,     72.7303,    -353.02 
  K,       0.2,          1,          1.52,     66.5516,    -354.47 
  K,       0.3,          1,          1.52,     60.5533,    -355.68 
  K,       0.3,          1,          1.52,     60.5533,    -355.69 
  K,       0.4,          1,          1.52,     54.7354,    -355.02 
  K,       0.5,          1,          1.52,     49.0979,    -353.14 
  K,       0.5,          1,          1.52,     49.0979,    -353.14 
  K,       0.6,          1,          1.52,     43.6408,    -350.67 
 Rb,         0,          1,          1.63,     79.0895,       -329 
 Rb,      0.05,          1,          1.63,     75.8874,   -329.183 
 Rb,       0.1,          1,          1.63,     72.7303,    -329.58 
 Rb,      0.15,          1,          1.63,     69.6184,     -330.1 
 Rb,       0.2,          1,          1.63,     66.5516,    -330.83 
 Rb,      0.25,          1,          1.63,     63.5299,    -331.67 
 Rb,       0.3,          1,          1.63,     60.5533,    -332.76 
 Rb,       0.3,          1,          1.63,     60.5533,    -332.18 
 Rb,      0.35,          1,          1.63,     57.6218,    -332.14 
 Rb,       0.4,          1,          1.63,     54.7354,    -331.67 
 Rb,      0.45,          1,          1.63,     51.8941,    -330.99 
 Rb,       0.5,          1,          1.63,     49.0979,    -330.33 
 Rb,       0.5,          1,          1.63,     49.0979,    -330.15 
 Rb,      0.55,          1,          1.63,     46.3468,   -329.067 
 Rb,       0.6,          1,          1.63,     43.6408,    -327.87 
 Rb,      0.65,          1,          1.63,       40.98,    -326.48 
 Cs,         0,          1,          1.84,     79.0895,       -306 
 Cs,       0.3,          1,          1.84,     60.5533,    -310.37 
 Cs,       0.5,          1,          1.84,     49.0979,    -308.13 
 Cl,         0,         -1,          1.67,     79.0895,       -304 
 Cl,      0.05,         -1,          1.67,     75.8874,    -302.97 
 Cl,       0.1,         -1,          1.67,     72.7303,    -301.73 
 Cl,       0.1,         -1,          1.67,     72.7303,    -301.82 
 Cl,       0.1,         -1,          1.67,     72.7303,    -301.76 
 Cl,       0.1,         -1,          1.67,     72.7303,    -301.75 
 Cl,       0.1,         -1,          1.67,     72.7303,    -301.74 
 Cl,       0.1,         -1,          1.67,     72.7303,    -301.76 
 Cl,       0.1,         -1,          1.67,     72.7303,    -301.78 
 Cl,      0.15,         -1,          1.67,     69.6184,    -300.39 
 Cl,       0.2,         -1,          1.67,     66.5516,     -298.7 
 Cl,       0.2,         -1,          1.67,     66.5516,     -298.8 
 Cl,       0.2,         -1,          1.67,     66.5516,     -298.7 
 Cl,       0.2,         -1,          1.67,     66.5516,     -298.7 
 Cl,       0.2,         -1,          1.67,     66.5516,     -298.7 
 Cl,       0.2,         -1,          1.67,     66.5516,     -298.7 
 Cl,       0.2,         -1,          1.67,     66.5516,     -298.7 
 Cl,      0.25,         -1,          1.67,     63.5299,     -297.1 
 Cl,       0.3,         -1,          1.67,     60.5533,     -295.9 
 Cl,       0.3,         -1,          1.67,     60.5533,     -295.7 
 Cl,       0.3,         -1,          1.67,     60.5533,     -295.7 
 Cl,       0.3,         -1,          1.67,     60.5533,     -295.7 
 Cl,       0.3,         -1,          1.67,     60.5533,     -295.8 
 Cl,      0.35,         -1,          1.67,     57.6218,       -295 
 Cl,       0.4,         -1,          1.67,     54.7354,     -294.4 
 Cl,       0.4,         -1,          1.67,     54.7354,     -294.4 
 Cl,       0.4,         -1,          1.67,     54.7354,     -294.4 
 Cl,       0.4,         -1,          1.67,     54.7354,     -294.4 
 Cl,       0.4,         -1,          1.67,     54.7354,     -294.4 
 Cl,      0.45,         -1,          1.67,     51.8941,     -294.2 
 Cl,    0.4602,         -1,          1.67,       51.32,     -313.6 
 Cl,       0.5,         -1,          1.67,     49.0979,     -294.1 
 Cl,       0.5,         -1,          1.67,     49.0979,     -294.4 
 Cl,       0.5,         -1,          1.67,     49.0979,       -294 
 Cl,       0.5,         -1,          1.67,     49.0979,     -294.2 
 Cl,       0.5,         -1,          1.67,     49.0979,     -294.1 
 Cl,       0.5,         -1,          1.67,     49.0979,     -294.1 
 Cl,       0.5,         -1,          1.67,     49.0979,     -294.1 
 Cl,      0.55,         -1,          1.67,     46.3468,     -294.1 
 Cl,       0.6,         -1,          1.67,     43.6408,     -294.2 
 Cl,       0.6,         -1,          1.67,     43.6408,     -294.1 
 Cl,       0.6,         -1,          1.67,     43.6408,     -293.9 
 Cl,      0.65,         -1,          1.67,       40.98,     -294.1 
 Br,         0,         -1,          1.82,     79.0895,       -278 
 Br,       0.1,         -1,          1.82,     72.7303,    -276.18 
 Br,       0.1,         -1,          1.82,     72.7303,    -276.24 
 Br,       0.2,         -1,          1.82,     66.5516,    -273.51 
 Br,       0.2,         -1,          1.82,     66.5516,    -273.26 
 Br,       0.2,         -1,          1.82,     66.5516,     -273.5 
 Br,       0.3,         -1,          1.82,     60.5533,     -270.9 
 Br,       0.3,         -1,          1.82,     60.5533,     -270.7 
 Br,       0.3,         -1,          1.82,     60.5533,     -270.9 
 Br,       0.4,         -1,          1.82,     54.7354,     -269.7 
 Br,       0.4,         -1,          1.82,     54.7354,     -269.6 
 Br,       0.5,         -1,          1.82,     49.0979,     -269.7 
 Br,       0.5,         -1,          1.82,     49.0979,     -269.4 
 Br,       0.5,         -1,          1.82,     49.0979,     -269.9 
 Br,       0.6,         -1,          1.82,     43.6408,     -270.1 
  I,         0,         -1,          2.06,     79.0895,       -243 
  I,       0.1,         -1,          2.06,     72.7303,    -241.44 
  I,       0.2,         -1,          2.06,     66.5516,    -238.97 
  I,       0.3,         -1,          2.06,     60.5533,       -237 
  I,       0.3,         -1,          2.06,     60.5533,     -236.6 
  I,       0.5,         -1,          2.06,     49.0979,     -236.3 
  I,       0.5,         -1,          2.06,     49.0979,     -236.8 
