Ion,                         Weight_Weight,                                                                                                                                                      Delta_G_Transfer     
K,                         [0 10 20 30 30 40 50 50 60],                                                                                                                                [0 -1.02 -2.47 -3.68 -3.69 -3.02 -1.14 -1.14 1.33]
Rb,                        [0 5 10 15 20 25 30 30 35 40 45 50 50 55 60 65],                                                                                                            [0 -0.183 -0.58 -1.1 -1.83 -2.67 -3.76 -3.18 -3.14 -2.67 -1.99 -1.33 -1.15 -0.067 1.13 2.52]
Cs,                        [0 30 50],                                                                                                                                                  [0 -4.37 -2.13]
Cl,                        [0 5 10 10 10 10 10 10 10 15 20 20 20 20 20 20 20 25 30 30 30 30 30 35 40 40 40 40 40 45 46.02 50 50 50 50 50 50 50 55 60 60 60 65],                  [0 1.03 2.27 2.18 2.24 2.25 2.26 2.24 2.22 3.61 5.3 5.2 5.3 5.3 5.3 5.3 5.3 6.9 8.1 8.3 8.3 8.3 8.2 9.0 9.6 9.6 9.6 9.6 9.6 9.8 -9.6 9.9 9.6 10.0 9.8 9.9 9.9 9.9 9.9 9.8 9.9 10.1 9.9]
Br,                        [0 10 10 20 20 20 30 30 30 40 40 50 50 50 60],                                                                                                              [0 1.82 1.76 4.49 4.74 4.50 7.1 7.3 7.1 8.3 8.4 8.3 8.6 8.1 7.9]
I,                         [0 10 20 30 30 50 50],                                                                                                                                      [0 1.56 4.03 6.0 6.4 6.7 6.2]
