                       W - Urea mixtures 
Ion,      Weight,      Charge,      Radius,      Eps_s,      DG_Exp 
 Li,         0,          1,          0.88,     78.5143,       -529 
 Li,       0.1,          1,          0.88,     83.2921,    -533.52 
 Li,     0.115,          1,          0.88,     83.9806,     -533.8 
 Li,       0.2,          1,          0.88,     87.7435,     -535.3 
 Li,     0.203,          1,          0.88,      87.872,     -535.1 
 Li,     0.296,          1,          0.88,     91.7098,     -534.7 
 Li,       0.3,          1,          0.88,     91.8686,     -534.8 
 Li,     0.368,          1,          0.88,     94.4873,     -534.2 
 Na,         0,          1,          1.16,     78.5143,       -424 
 Na,     0.057,          1,          1.16,     81.2776,    -426.66 
 Na,       0.1,          1,          1.16,     83.2921,    -428.39 
 Na,     0.107,          1,          1.16,     83.6143,     -428.3 
 Na,     0.115,          1,          1.16,     83.9806,    -428.46 
 Na,       0.2,          1,          1.16,     87.7435,    -428.93 
 Na,     0.203,          1,          1.16,      87.872,     -429.4 
 Na,     0.231,          1,          1.16,     89.0572,     -429.2 
 Na,     0.296,          1,          1.16,     91.7098,    -428.62 
 Na,       0.3,          1,          1.16,     91.8686,    -428.08 
 Na,     0.368,          1,          1.16,     94.4873,    -428.25 
 Na,     0.375,          1,          1.16,     94.7483,    -427.71 
  K,         0,          1,          1.52,     78.5143,       -352 
  K,       0.1,          1,          1.52,     83.2921,    -356.31 
  K,     0.115,          1,          1.52,     83.9806,    -356.31 
  K,       0.2,          1,          1.52,     87.7435,     -357.8 
  K,     0.203,          1,          1.52,      87.872,     -357.6 
  K,     0.296,          1,          1.52,     91.7098,       -357 
  K,       0.3,          1,          1.52,     91.8686,       -357 
  K,     0.368,          1,          1.52,     94.4873,    -356.51 
 Rb,         0,          1,          1.63,     78.5143,       -329 
 Rb,      0.05,          1,          1.63,      80.944,    -331.45 
 Rb,       0.1,          1,          1.63,     83.2921,     -333.3 
 Rb,       0.1,          1,          1.63,     83.2921,    -333.34 
 Rb,     0.115,          1,          1.63,     83.9806,    -333.74 
 Rb,      0.15,          1,          1.63,     85.5586,     -334.4 
 Rb,       0.2,          1,          1.63,     87.7435,     -334.9 
 Rb,       0.2,          1,          1.63,     87.7435,     -334.8 
 Rb,     0.203,          1,          1.63,      87.872,     -334.8 
 Rb,      0.25,          1,          1.63,     89.8468,     -334.7 
 Rb,     0.296,          1,          1.63,     91.7098,     -334.2 
 Rb,       0.3,          1,          1.63,     91.8686,     -334.1 
 Rb,       0.3,          1,          1.63,     91.8686,     -334.4 
 Rb,      0.35,          1,          1.63,     93.8088,     -334.1 
 Rb,     0.368,          1,          1.63,     94.4873,    -333.68 
 Cs,         0,          1,          1.84,     78.5143,       -306 
 Cs,       0.1,          1,          1.84,     83.2921,    -310.72 
 Cs,     0.115,          1,          1.84,     83.9806,    -310.82 
 Cs,       0.2,          1,          1.84,     87.7435,     -311.5 
 Cs,     0.203,          1,          1.84,      87.872,     -312.9 
 Cs,     0.296,          1,          1.84,     91.7098,     -311.6 
 Cs,       0.3,          1,          1.84,     91.8686,       -312 
 Cs,     0.368,          1,          1.84,     94.4873,     -311.1 
 Cl,         0,         -1,          1.67,     78.5143,       -304 
 Cl,     0.115,         -1,          1.67,     83.9806,    -299.52 
 Cl,     0.115,         -1,          1.67,     83.9806,     -300.3 
 Cl,     0.203,         -1,          1.67,      87.872,     -298.6 
 Cl,     0.203,         -1,          1.67,      87.872,     -298.4 
 Cl,     0.296,         -1,          1.67,     91.7098,     -299.3 
 Cl,     0.296,         -1,          1.67,     91.7098,    -299.47 
 Cl,     0.368,         -1,          1.67,     94.4873,    -299.89 
 Br,         0,         -1,          1.82,     78.5143,       -278 
 Br,     0.115,         -1,          1.82,     83.9806,    -273.73 
 Br,     0.203,         -1,          1.82,      87.872,       -273 
 Br,     0.296,         -1,          1.82,     91.7098,     -273.8 
 Br,     0.368,         -1,          1.82,     94.4873,    -274.37 
  I,         0,         -1,          2.06,     78.5143,       -243 
  I,     0.115,         -1,          2.06,     83.9806,    -238.91 
  I,     0.203,         -1,          2.06,      87.872,    -238.19 
  I,     0.296,         -1,          2.06,     91.7098,     -239.2 
  I,     0.368,         -1,          2.06,     94.4873,     -239.9 
